<?xml version="1.0" standalone="no"?>
 <!DOCTYPE svg PUBLIC "-//W3C//DTD SVG 1.1//EN" 
 "http://www.w3.org/Graphics/SVG/1.1/DTD/svg11.dtd"> 
<svg xmlns="http://www.w3.org/2000/svg" version="1.1" 
    width="29.7002cm" height="21.0007cm" viewBox="0 0 116930 82680 ">
<title>SVG Picture created as diodes_opamps-sheet584A3DDF.svg date 2017/01/02 09:48:57 </title>
  <desc>Picture generated by Eeschema-SVG </desc>
<g style="fill:#000000; fill-opacity:1;stroke:#000000; stroke-opacity:1;
stroke-linecap:round; stroke-linejoin:round; "
 transform="translate(0 0) scale(1 1)">
</g>
<g style="fill:#000000; fill-opacity:0.0; 
stroke:#000000; stroke-width:0; stroke-opacity:1; 
stroke-linecap:round; stroke-linejoin:round;">
</g>
<g style="fill:#840000; fill-opacity:0.0; 
stroke:#840000; stroke-width:0; stroke-opacity:1; 
stroke-linecap:round; stroke-linejoin:round;">
</g>
<g style="fill:#840000; fill-opacity:0.0; 
stroke:#840000; stroke-width:60; stroke-opacity:1; 
stroke-linecap:round; stroke-linejoin:round;">
<rect x="45500" y="29750" width="5250" height="6250" rx="0" />
<path d="M50000 29750
L50000 27750
" />
</g>
<g style="fill:#008484; fill-opacity:0.0; 
stroke:#008484; stroke-width:60; stroke-opacity:1; 
stroke-linecap:round; stroke-linejoin:round;">
<path d="M49730 31840
L49730 31740
L49750 31690
L49800 31650
L49890 31620
L50060 31620
L50150 31650
L50200 31690
L50230 31740
L50230 31840
L50200 31880
L50150 31930
L50060 31950
L49890 31950
L49800 31930
L49750 31880
L49730 31840
" />
<path d="M49730 31410
L50130 31410
L50180 31390
L50200 31360
L50230 31320
L50230 31220
L50200 31170
L50180 31150
L50130 31130
L49730 31130
" />
<path d="M49730 30960
L49730 30680
" />
<path d="M50230 30820
L49730 30820
" />
<path d="M50230 30250
L50230 30530
" />
<path d="M50230 30390
L49730 30390
L49800 30440
L49850 30490
L49870 30530
" />
</g>
<g style="fill:#840000; fill-opacity:0.0; 
stroke:#840000; stroke-width:60; stroke-opacity:1; 
stroke-linecap:round; stroke-linejoin:round;">
<path d="M49880 28610
L49880 28890
" />
<path d="M49880 28750
L49380 28750
L49450 28800
L49500 28850
L49520 28890
" />
<path d="M48750 29750
L48750 27750
" />
</g>
<g style="fill:#008484; fill-opacity:0.0; 
stroke:#008484; stroke-width:60; stroke-opacity:1; 
stroke-linecap:round; stroke-linejoin:round;">
<path d="M48980 31890
L48480 31890
" />
<path d="M48980 31650
L48480 31650
L48980 31370
L48480 31370
" />
<path d="M48980 30870
L48980 31150
" />
<path d="M48980 31010
L48480 31010
L48550 31060
L48600 31110
L48620 31150
" />
<path d="M48790 30650
L48790 30270
" />
</g>
<g style="fill:#840000; fill-opacity:0.0; 
stroke:#840000; stroke-width:60; stroke-opacity:1; 
stroke-linecap:round; stroke-linejoin:round;">
<path d="M48170 28890
L48150 28870
L48130 28820
L48130 28700
L48150 28660
L48170 28630
L48220 28610
L48270 28610
L48340 28630
L48630 28920
L48630 28610
" />
<path d="M47500 29750
L47500 27750
" />
</g>
<g style="fill:#008484; fill-opacity:0.0; 
stroke:#008484; stroke-width:60; stroke-opacity:1; 
stroke-linecap:round; stroke-linejoin:round;">
<path d="M47730 31890
L47230 31890
" />
<path d="M47730 31650
L47230 31650
L47730 31370
L47230 31370
" />
<path d="M47730 30870
L47730 31150
" />
<path d="M47730 31010
L47230 31010
L47300 31060
L47350 31110
L47370 31150
" />
<path d="M47540 30650
L47540 30270
" />
<path d="M47730 30460
L47350 30460
" />
</g>
<g style="fill:#840000; fill-opacity:0.0; 
stroke:#840000; stroke-width:60; stroke-opacity:1; 
stroke-linecap:round; stroke-linejoin:round;">
<path d="M46880 28920
L46880 28610
L47070 28780
L47070 28700
L47090 28660
L47110 28630
L47160 28610
L47280 28610
L47330 28630
L47350 28660
L47380 28700
L47380 28850
L47350 28890
L47330 28920
" />
<path d="M46250 29750
L46250 27750
" />
</g>
<g style="fill:#008484; fill-opacity:0.0; 
stroke:#008484; stroke-width:60; stroke-opacity:1; 
stroke-linecap:round; stroke-linejoin:round;">
<path d="M45980 32150
L46480 31990
L45980 31820
" />
<path d="M46430 31370
L46450 31390
L46480 31460
L46480 31510
L46450 31580
L46400 31630
L46360 31650
L46260 31670
L46190 31670
L46100 31650
L46050 31630
L46000 31580
L45980 31510
L45980 31460
L46000 31390
L46020 31370
" />
<path d="M46430 30870
L46450 30890
L46480 30960
L46480 31010
L46450 31080
L46400 31130
L46360 31150
L46260 31170
L46190 31170
L46100 31150
L46050 31130
L46000 31080
L45980 31010
L45980 30960
L46000 30890
L46020 30870
" />
<path d="M46290 30650
L46290 30270
" />
</g>
<g style="fill:#840000; fill-opacity:0.0; 
stroke:#840000; stroke-width:60; stroke-opacity:1; 
stroke-linecap:round; stroke-linejoin:round;">
<path d="M45790 28660
L46130 28660
" />
<path d="M45600 28780
L45960 28890
L45960 28590
" />
<path d="M46250 36000
L46250 38000
" />
</g>
<g style="fill:#008484; fill-opacity:0.0; 
stroke:#008484; stroke-width:60; stroke-opacity:1; 
stroke-linecap:round; stroke-linejoin:round;">
<path d="M46480 35480
L45980 35480
" />
<path d="M46480 35240
L45980 35240
L46480 34960
L45980 34960
" />
<path d="M46020 34740
L46000 34720
L45980 34670
L45980 34550
L46000 34510
L46020 34480
L46070 34460
L46120 34460
L46190 34480
L46480 34770
L46480 34460
" />
<path d="M46290 34240
L46290 33860
" />
<path d="M46480 34050
L46100 34050
" />
</g>
<g style="fill:#840000; fill-opacity:0.0; 
stroke:#840000; stroke-width:60; stroke-opacity:1; 
stroke-linecap:round; stroke-linejoin:round;">
<path d="M45630 36880
L45630 37120
L45860 37140
L45840 37120
L45820 37070
L45820 36950
L45840 36910
L45860 36880
L45910 36860
L46030 36860
L46080 36880
L46100 36910
L46130 36950
L46130 37070
L46100 37120
L46080 37140
" />
<path d="M47500 36000
L47500 38000
" />
</g>
<g style="fill:#008484; fill-opacity:0.0; 
stroke:#008484; stroke-width:60; stroke-opacity:1; 
stroke-linecap:round; stroke-linejoin:round;">
<path d="M47730 35480
L47230 35480
" />
<path d="M47730 35240
L47230 35240
L47730 34960
L47230 34960
" />
<path d="M47270 34740
L47250 34720
L47230 34670
L47230 34550
L47250 34510
L47270 34480
L47320 34460
L47370 34460
L47440 34480
L47730 34770
L47730 34460
" />
<path d="M47540 34240
L47540 33860
" />
</g>
<g style="fill:#840000; fill-opacity:0.0; 
stroke:#840000; stroke-width:60; stroke-opacity:1; 
stroke-linecap:round; stroke-linejoin:round;">
<path d="M46880 36910
L46880 37000
L46900 37050
L46920 37070
L47000 37120
L47090 37140
L47280 37140
L47330 37120
L47350 37100
L47380 37050
L47380 36950
L47350 36910
L47330 36880
L47280 36860
L47160 36860
L47110 36880
L47090 36910
L47070 36950
L47070 37050
L47090 37100
L47110 37120
L47160 37140
" />
<path d="M48750 36000
L48750 38000
" />
</g>
<g style="fill:#008484; fill-opacity:0.0; 
stroke:#008484; stroke-width:60; stroke-opacity:1; 
stroke-linecap:round; stroke-linejoin:round;">
<path d="M48480 35390
L48480 35290
L48500 35240
L48550 35200
L48640 35170
L48810 35170
L48900 35200
L48950 35240
L48980 35290
L48980 35390
L48950 35430
L48900 35480
L48810 35500
L48640 35500
L48550 35480
L48500 35430
L48480 35390
" />
<path d="M48480 34960
L48880 34960
L48930 34940
L48950 34910
L48980 34870
L48980 34770
L48950 34720
L48930 34700
L48880 34680
L48480 34680
" />
<path d="M48480 34510
L48480 34230
" />
<path d="M48980 34370
L48480 34370
" />
<path d="M48520 34080
L48500 34060
L48480 34010
L48480 33890
L48500 33850
L48520 33820
L48570 33800
L48620 33800
L48690 33820
L48980 34110
L48980 33800
" />
</g>
<g style="fill:#840000; fill-opacity:0.0; 
stroke:#840000; stroke-width:60; stroke-opacity:1; 
stroke-linecap:round; stroke-linejoin:round;">
<path d="M48130 37170
L48130 36840
L48630 37050
" />
<path d="M50000 36000
L50000 38000
" />
</g>
<g style="fill:#008484; fill-opacity:0.0; 
stroke:#008484; stroke-width:60; stroke-opacity:1; 
stroke-linecap:round; stroke-linejoin:round;">
<path d="M49730 35550
L50230 35390
L49730 35220
" />
<path d="M50180 34770
L50200 34790
L50230 34860
L50230 34910
L50200 34980
L50150 35030
L50110 35050
L50010 35070
L49940 35070
L49850 35050
L49800 35030
L49750 34980
L49730 34910
L49730 34860
L49750 34790
L49770 34770
" />
<path d="M50180 34270
L50200 34290
L50230 34360
L50230 34410
L50200 34480
L50150 34530
L50110 34550
L50010 34570
L49940 34570
L49850 34550
L49800 34530
L49750 34480
L49730 34410
L49730 34360
L49750 34290
L49770 34270
" />
<path d="M50040 34050
L50040 33670
" />
<path d="M50230 33860
L49850 33860
" />
</g>
<g style="fill:#840000; fill-opacity:0.0; 
stroke:#840000; stroke-width:60; stroke-opacity:1; 
stroke-linecap:round; stroke-linejoin:round;">
<path d="M49590 37050
L49570 37100
L49540 37120
L49500 37140
L49470 37140
L49420 37120
L49400 37100
L49380 37050
L49380 36950
L49400 36910
L49420 36880
L49470 36860
L49500 36860
L49540 36880
L49570 36910
L49590 36950
L49590 37050
L49610 37100
L49640 37120
L49690 37140
L49780 37140
L49830 37120
L49850 37100
L49880 37050
L49880 36950
L49850 36910
L49830 36880
L49780 36860
L49690 36860
L49640 36880
L49610 36910
L49590 36950
" />
</g>
<g style="fill:#008484; fill-opacity:0.0; 
stroke:#008484; stroke-width:60; stroke-opacity:1; 
stroke-linecap:round; stroke-linejoin:round;">
<path d="M50880 35960
L51370 35960
L51420 35930
L51450 35900
L51480 35840
L51480 35730
L51450 35670
L51420 35640
L51370 35610
L50880 35610
" />
<path d="M50880 35070
L50880 35180
L50910 35240
L50940 35270
L51020 35330
L51140 35360
L51370 35360
L51420 35330
L51450 35300
L51480 35240
L51480 35130
L51450 35070
L51420 35040
L51370 35010
L51220 35010
L51170 35040
L51140 35070
L51110 35130
L51110 35240
L51140 35300
L51170 35330
L51220 35360
" />
<path d="M44630 35990
L44630 35880
L44660 35820
L44720 35760
L44830 35740
L45030 35740
L45150 35760
L45200 35820
L45230 35880
L45230 35990
L45200 36050
L45150 36110
L45030 36140
L44830 36140
L44720 36110
L44660 36050
L44630 35990
" />
<path d="M44830 35480
L45430 35480
" />
<path d="M44860 35480
L44830 35420
L44830 35310
L44860 35250
L44890 35220
L44950 35190
L45120 35190
L45170 35220
L45200 35250
L45230 35310
L45230 35420
L45200 35480
" />
<path d="M45060 34970
L45060 34680
" />
<path d="M45230 35020
L44630 34820
L45230 34620
" />
<path d="M45230 34430
L44830 34430
" />
<path d="M44890 34430
L44860 34400
L44830 34340
L44830 34260
L44860 34200
L44920 34170
L45230 34170
" />
<path d="M44920 34170
L44860 34140
L44830 34080
L44830 34000
L44860 33940
L44920 33910
L45230 33910
" />
<path d="M44830 33630
L45430 33630
" />
<path d="M44860 33630
L44830 33570
L44830 33460
L44860 33400
L44890 33370
L44950 33340
L45120 33340
L45170 33370
L45200 33400
L45230 33460
L45230 33570
L45200 33630
" />
<path d="M45000 33090
L45000 32630
" />
<path d="M44630 32430
L44630 32090
" />
<path d="M45230 32260
L44630 32260
" />
<path d="M45200 31920
L45230 31830
L45230 31690
L45200 31630
L45170 31600
L45120 31570
L45060 31570
L45000 31600
L44970 31630
L44950 31690
L44920 31800
L44890 31860
L44860 31890
L44800 31920
L44750 31920
L44690 31890
L44660 31860
L44630 31800
L44630 31660
L44660 31570
" />
<path d="M44630 31400
L45230 31200
L44630 31000
" />
<path d="M44630 30860
L44630 30460
L45230 30720
" />
<path d="M45230 29920
L45230 30270
" />
<path d="M45230 30090
L44630 30090
L44720 30150
L44770 30210
L44800 30270
" />
<path d="M44690 29700
L44660 29670
L44630 29610
L44630 29470
L44660 29410
L44690 29380
L44750 29350
L44800 29350
L44890 29380
L45230 29720
L45230 29350
" />
</g>
<g style="fill:#008484; fill-opacity:0.0; 
stroke:#008484; stroke-width:0; stroke-opacity:1; 
stroke-linecap:round; stroke-linejoin:round;">
</g>
<g style="fill:#840000; fill-opacity:0.0; 
stroke:#840000; stroke-width:0; stroke-opacity:1; 
stroke-linecap:round; stroke-linejoin:round;">
</g>
<g style="fill:#840000; fill-opacity:0.0; 
stroke:#840000; stroke-width:60; stroke-opacity:1; 
stroke-linecap:round; stroke-linejoin:round;">
<polyline fill="none;"
points="48750,45750
48750,46250
" /> 
<polyline fill="none;"
points="48400,46750
48650,46900
" /> 
<polyline fill="none;"
points="48400,46750
48500,46750
48450,46850
48400,46750
" /> 
<polyline fill="none;"
points="48750,46250
48250,46750
48250,46250
48250,45750
48750,46250
48750,46750
" /> 
<polyline fill="none;"
points="48400,46900
48350,47000
48300,46900
48400,46900
48350,46950
48500,47050
" /> 
<path d="M48250 46250
L46250 46250
" />
<path d="M47390 46130
L47110 46130
" />
<path d="M47250 46130
L47250 45630
L47200 45700
L47150 45750
L47110 45770
" />
<path d="M48750 46250
L50750 46250
" />
<path d="M49610 45670
L49630 45650
L49680 45630
L49800 45630
L49840 45650
L49870 45670
L49890 45720
L49890 45770
L49870 45840
L49580 46130
L49890 46130
" />
</g>
<g style="fill:#008484; fill-opacity:0.0; 
stroke:#008484; stroke-width:60; stroke-opacity:1; 
stroke-linecap:round; stroke-linejoin:round;">
<path d="M47250 47530
L47250 46930
L47400 46930
L47480 46960
L47540 47020
L47570 47070
L47600 47190
L47600 47270
L47570 47390
L47540 47450
L47480 47500
L47400 47530
L47250 47530
" />
<path d="M47800 46930
L48200 46930
L47940 47530
" />
<path d="M45900 45480
L45900 44880
L46130 44880
L46190 44910
L46220 44940
L46250 45000
L46250 45080
L46220 45140
L46190 45170
L46130 45200
L45900 45200
" />
<path d="M46500 45480
L46500 44880
" />
<path d="M46760 45480
L46760 45170
L46730 45110
L46670 45080
L46590 45080
L46530 45110
L46500 45140
" />
<path d="M47130 45480
L47070 45450
L47040 45420
L47010 45370
L47010 45200
L47040 45140
L47070 45110
L47130 45080
L47210 45080
L47270 45110
L47300 45140
L47330 45200
L47330 45370
L47300 45420
L47270 45450
L47210 45480
L47130 45480
" />
<path d="M47500 45080
L47730 45080
" />
<path d="M47580 44880
L47580 45400
L47610 45450
L47670 45480
L47730 45480
" />
<path d="M48010 45480
L47950 45450
L47920 45420
L47890 45370
L47890 45200
L47920 45140
L47950 45110
L48010 45080
L48090 45080
L48150 45110
L48180 45140
L48210 45200
L48210 45370
L48180 45420
L48150 45450
L48090 45480
L48010 45480
" />
<path d="M48720 45480
L48720 44880
" />
<path d="M48720 45450
L48660 45480
L48550 45480
L48490 45450
L48460 45420
L48430 45370
L48430 45200
L48460 45140
L48490 45110
L48550 45080
L48660 45080
L48720 45110
" />
<path d="M49000 45480
L49000 45080
" />
<path d="M49000 44880
L48970 44910
L49000 44940
L49030 44910
L49000 44880
L49000 44940
" />
<path d="M49380 45480
L49320 45450
L49290 45420
L49260 45370
L49260 45200
L49290 45140
L49320 45110
L49380 45080
L49460 45080
L49520 45110
L49550 45140
L49580 45200
L49580 45370
L49550 45420
L49520 45450
L49460 45480
L49380 45480
" />
<path d="M50090 45480
L50090 44880
" />
<path d="M50090 45450
L50030 45480
L49920 45480
L49860 45450
L49830 45420
L49800 45370
L49800 45200
L49830 45140
L49860 45110
L49920 45080
L50030 45080
L50090 45110
" />
<path d="M50600 45450
L50540 45480
L50430 45480
L50370 45450
L50340 45400
L50340 45170
L50370 45110
L50430 45080
L50540 45080
L50600 45110
L50630 45170
L50630 45220
L50340 45280
" />
</g>
<g style="fill:#008484; fill-opacity:0.0; 
stroke:#008484; stroke-width:0; stroke-opacity:1; 
stroke-linecap:round; stroke-linejoin:round;">
</g>
<g style="fill:#840000; fill-opacity:0.0; 
stroke:#840000; stroke-width:0; stroke-opacity:1; 
stroke-linecap:round; stroke-linejoin:round;">
</g>
<g style="fill:#840000; fill-opacity:0.0; 
stroke:#840000; stroke-width:60; stroke-opacity:1; 
stroke-linecap:round; stroke-linejoin:round;">
<polyline fill="none;"
points="50000,21750
50000,22250
" /> 
<polyline fill="none;"
points="49650,22750
49900,22900
" /> 
<polyline fill="none;"
points="49650,22750
49750,22750
49700,22850
49650,22750
" /> 
<polyline fill="none;"
points="50000,22250
49500,22750
49500,22250
49500,21750
50000,22250
50000,22750
" /> 
<polyline fill="none;"
points="49650,22900
49600,23000
49550,22900
49650,22900
49600,22950
49750,23050
" /> 
<path d="M49500 22250
L47500 22250
" />
<path d="M48640 22130
L48360 22130
" />
<path d="M48500 22130
L48500 21630
L48450 21700
L48400 21750
L48360 21770
" />
<path d="M50000 22250
L52000 22250
" />
<path d="M50860 21670
L50880 21650
L50930 21630
L51050 21630
L51090 21650
L51120 21670
L51140 21720
L51140 21770
L51120 21840
L50830 22130
L51140 22130
" />
</g>
<g style="fill:#008484; fill-opacity:0.0; 
stroke:#008484; stroke-width:60; stroke-opacity:1; 
stroke-linecap:round; stroke-linejoin:round;">
<path d="M48500 23530
L48500 22930
L48650 22930
L48730 22960
L48790 23020
L48820 23070
L48850 23190
L48850 23270
L48820 23390
L48790 23450
L48730 23500
L48650 23530
L48500 23530
" />
<path d="M49190 23190
L49130 23160
L49100 23130
L49070 23070
L49070 23050
L49100 22990
L49130 22960
L49190 22930
L49300 22930
L49360 22960
L49390 22990
L49420 23050
L49420 23070
L49390 23130
L49360 23160
L49300 23190
L49190 23190
L49130 23220
L49100 23250
L49070 23300
L49070 23420
L49100 23470
L49130 23500
L49190 23530
L49300 23530
L49360 23500
L49390 23470
L49420 23420
L49420 23300
L49390 23250
L49360 23220
L49300 23190
" />
<path d="M47150 21480
L47150 20880
L47380 20880
L47440 20910
L47470 20940
L47500 21000
L47500 21080
L47470 21140
L47440 21170
L47380 21200
L47150 21200
" />
<path d="M47750 21480
L47750 20880
" />
<path d="M48010 21480
L48010 21170
L47980 21110
L47920 21080
L47840 21080
L47780 21110
L47750 21140
" />
<path d="M48380 21480
L48320 21450
L48290 21420
L48260 21370
L48260 21200
L48290 21140
L48320 21110
L48380 21080
L48460 21080
L48520 21110
L48550 21140
L48580 21200
L48580 21370
L48550 21420
L48520 21450
L48460 21480
L48380 21480
" />
<path d="M48750 21080
L48980 21080
" />
<path d="M48830 20880
L48830 21400
L48860 21450
L48920 21480
L48980 21480
" />
<path d="M49260 21480
L49200 21450
L49170 21420
L49140 21370
L49140 21200
L49170 21140
L49200 21110
L49260 21080
L49340 21080
L49400 21110
L49430 21140
L49460 21200
L49460 21370
L49430 21420
L49400 21450
L49340 21480
L49260 21480
" />
<path d="M49970 21480
L49970 20880
" />
<path d="M49970 21450
L49910 21480
L49800 21480
L49740 21450
L49710 21420
L49680 21370
L49680 21200
L49710 21140
L49740 21110
L49800 21080
L49910 21080
L49970 21110
" />
<path d="M50250 21480
L50250 21080
" />
<path d="M50250 20880
L50220 20910
L50250 20940
L50280 20910
L50250 20880
L50250 20940
" />
<path d="M50630 21480
L50570 21450
L50540 21420
L50510 21370
L50510 21200
L50540 21140
L50570 21110
L50630 21080
L50710 21080
L50770 21110
L50800 21140
L50830 21200
L50830 21370
L50800 21420
L50770 21450
L50710 21480
L50630 21480
" />
<path d="M51340 21480
L51340 20880
" />
<path d="M51340 21450
L51280 21480
L51170 21480
L51110 21450
L51080 21420
L51050 21370
L51050 21200
L51080 21140
L51110 21110
L51170 21080
L51280 21080
L51340 21110
" />
<path d="M51850 21450
L51790 21480
L51680 21480
L51620 21450
L51590 21400
L51590 21170
L51620 21110
L51680 21080
L51790 21080
L51850 21110
L51880 21170
L51880 21220
L51590 21280
" />
</g>
<g style="fill:#008484; fill-opacity:0.0; 
stroke:#008484; stroke-width:0; stroke-opacity:1; 
stroke-linecap:round; stroke-linejoin:round;">
</g>
<g style="fill:#840000; fill-opacity:0.0; 
stroke:#840000; stroke-width:0; stroke-opacity:1; 
stroke-linecap:round; stroke-linejoin:round;">
</g>
<g style="fill:#840000; fill-opacity:0.0; 
stroke:#840000; stroke-width:100; stroke-opacity:1; 
stroke-linecap:round; stroke-linejoin:round;">
<rect x="49600" y="24500" width="800" height="2000" rx="0" />
</g>
<g style="fill:#840000; fill-opacity:0.0; 
stroke:#840000; stroke-width:60; stroke-opacity:1; 
stroke-linecap:round; stroke-linejoin:round;">
<path d="M50000 24500
L50000 24000
" />
<path d="M50000 26500
L50000 27000
" />
</g>
<g style="fill:#008484; fill-opacity:0.0; 
stroke:#008484; stroke-width:60; stroke-opacity:1; 
stroke-linecap:round; stroke-linejoin:round;">
<path d="M50990 25590
L50750 25750
" />
<path d="M50990 25870
L50490 25870
L50490 25680
L50510 25630
L50530 25610
L50580 25590
L50650 25590
L50700 25610
L50720 25630
L50750 25680
L50750 25870
" />
<path d="M50700 25300
L50680 25350
L50650 25370
L50610 25390
L50580 25390
L50530 25370
L50510 25350
L50490 25300
L50490 25200
L50510 25160
L50530 25130
L50580 25110
L50610 25110
L50650 25130
L50680 25160
L50700 25200
L50700 25300
L50720 25350
L50750 25370
L50800 25390
L50890 25390
L50940 25370
L50960 25350
L50990 25300
L50990 25200
L50960 25160
L50940 25130
L50890 25110
L50800 25110
L50750 25130
L50720 25160
L50700 25200
" />
<path d="M50190 25350
L49950 25510
" />
<path d="M50190 25630
L49690 25630
L49690 25440
L49710 25390
L49730 25370
L49780 25350
L49850 25350
L49900 25370
L49920 25390
L49950 25440
L49950 25630
" />
</g>
<g style="fill:#008484; fill-opacity:0.0; 
stroke:#008484; stroke-width:0; stroke-opacity:1; 
stroke-linecap:round; stroke-linejoin:round;">
</g>
<g style="fill:#840000; fill-opacity:0.0; 
stroke:#840000; stroke-width:0; stroke-opacity:1; 
stroke-linecap:round; stroke-linejoin:round;">
</g>
<g style="fill:#840000; fill-opacity:0.0; 
stroke:#840000; stroke-width:100; stroke-opacity:1; 
stroke-linecap:round; stroke-linejoin:round;">
<rect x="48350" y="40750" width="800" height="2000" rx="0" />
</g>
<g style="fill:#840000; fill-opacity:0.0; 
stroke:#840000; stroke-width:60; stroke-opacity:1; 
stroke-linecap:round; stroke-linejoin:round;">
<path d="M48750 40750
L48750 40250
" />
<path d="M48750 42750
L48750 43250
" />
</g>
<g style="fill:#008484; fill-opacity:0.0; 
stroke:#008484; stroke-width:60; stroke-opacity:1; 
stroke-linecap:round; stroke-linejoin:round;">
<path d="M49740 41840
L49500 42000
" />
<path d="M49740 42120
L49240 42120
L49240 41930
L49260 41880
L49280 41860
L49330 41840
L49400 41840
L49450 41860
L49470 41880
L49500 41930
L49500 42120
" />
<path d="M49240 41670
L49240 41340
L49740 41550
" />
<path d="M48940 41600
L48700 41760
" />
<path d="M48940 41880
L48440 41880
L48440 41690
L48460 41640
L48480 41620
L48530 41600
L48600 41600
L48650 41620
L48670 41640
L48700 41690
L48700 41880
" />
</g>
<g style="fill:#008400; fill-opacity:0.0; 
stroke:#008400; stroke-width:60; stroke-opacity:1; 
stroke-linecap:round; stroke-linejoin:round;">
<path d="M48750 24000
L48750 27750
" />
<path d="M50000 27000
L50000 27750
" />
<path d="M47500 22250
L47500 27750
" />
</g>
<g style="fill:#008400; fill-opacity:0.0; 
stroke:#008400; stroke-width:0; stroke-opacity:1; 
stroke-linecap:round; stroke-linejoin:round;">
</g>
<g style="fill:#008400; fill-opacity:1.0; 
stroke:#008400; stroke-width:100; stroke-opacity:1; 
stroke-linecap:round; stroke-linejoin:round;">
<circle cx="48750" cy="22250" r="200" /> 
</g>
<g style="fill:#008400; fill-opacity:1.0; 
stroke:#008400; stroke-width:60; stroke-opacity:1; 
stroke-linecap:round; stroke-linejoin:round;">
</g>
<g style="fill:#008400; fill-opacity:0.0; 
stroke:#008400; stroke-width:60; stroke-opacity:1; 
stroke-linecap:round; stroke-linejoin:round;">
<path d="M50000 27500
L53750 27500
" />
</g>
<g style="fill:#008400; fill-opacity:0.0; 
stroke:#008400; stroke-width:0; stroke-opacity:1; 
stroke-linecap:round; stroke-linejoin:round;">
</g>
<g style="fill:#008400; fill-opacity:1.0; 
stroke:#008400; stroke-width:100; stroke-opacity:1; 
stroke-linecap:round; stroke-linejoin:round;">
<circle cx="50000" cy="27500" r="200" /> 
</g>
<g style="fill:#008400; fill-opacity:1.0; 
stroke:#008400; stroke-width:60; stroke-opacity:1; 
stroke-linecap:round; stroke-linejoin:round;">
</g>
<g style="fill:#008400; fill-opacity:0.0; 
stroke:#008400; stroke-width:60; stroke-opacity:1; 
stroke-linecap:round; stroke-linejoin:round;">
<path d="M48750 40250
L48750 38000
" />
<path d="M47500 38000
L47500 43500
" />
<path d="M48750 40250
L51750 40250
" />
</g>
<g style="fill:#008400; fill-opacity:0.0; 
stroke:#008400; stroke-width:0; stroke-opacity:1; 
stroke-linecap:round; stroke-linejoin:round;">
</g>
<g style="fill:#008400; fill-opacity:1.0; 
stroke:#008400; stroke-width:100; stroke-opacity:1; 
stroke-linecap:round; stroke-linejoin:round;">
<circle cx="48750" cy="40250" r="200" /> 
</g>
<g style="fill:#008400; fill-opacity:1.0; 
stroke:#008400; stroke-width:0; stroke-opacity:1; 
stroke-linecap:round; stroke-linejoin:round;">
</g>
<g style="fill:#840000; fill-opacity:1.0; 
stroke:#840000; stroke-width:0; stroke-opacity:1; 
stroke-linecap:round; stroke-linejoin:round;">
</g>
<g style="fill:#840000; fill-opacity:0.0; 
stroke:#840000; stroke-width:60; stroke-opacity:1; 
stroke-linecap:round; stroke-linejoin:round;">
<polyline fill="none;"
points="46250,27000
46250,26500
45750,26500
46250,26000
46750,26500
46250,26500
" /> 
</g>
<g style="fill:#008484; fill-opacity:0.0; 
stroke:#008484; stroke-width:60; stroke-opacity:1; 
stroke-linecap:round; stroke-linejoin:round;">
<path d="M45870 25210
L45820 25190
L45750 25190
L45680 25210
L45630 25260
L45610 25310
L45590 25400
L45590 25470
L45610 25570
L45630 25610
L45680 25660
L45750 25690
L45800 25690
L45870 25660
L45890 25640
L45890 25470
L45800 25470
" />
<path d="M46110 25690
L46110 25190
L46390 25690
L46390 25190
" />
<path d="M46630 25690
L46630 25190
L46750 25190
L46820 25210
L46870 25260
L46890 25310
L46910 25400
L46910 25470
L46890 25570
L46870 25610
L46820 25660
L46750 25690
L46630 25690
" />
</g>
<g style="fill:#008400; fill-opacity:0.0; 
stroke:#008400; stroke-width:60; stroke-opacity:1; 
stroke-linecap:round; stroke-linejoin:round;">
<path d="M46250 27000
L46250 27750
" />
</g>
<g style="fill:#008400; fill-opacity:0.0; 
stroke:#008400; stroke-width:0; stroke-opacity:1; 
stroke-linecap:round; stroke-linejoin:round;">
</g>
<g style="fill:#840000; fill-opacity:0.0; 
stroke:#840000; stroke-width:0; stroke-opacity:1; 
stroke-linecap:round; stroke-linejoin:round;">
</g>
<g style="fill:#840000; fill-opacity:0.0; 
stroke:#840000; stroke-width:60; stroke-opacity:1; 
stroke-linecap:round; stroke-linejoin:round;">
<circle cx="50000" cy="39000" r="250" /> 
<polyline fill="none;"
points="50000,38250
50000,38750
" /> 
</g>
<g style="fill:#008484; fill-opacity:0.0; 
stroke:#008484; stroke-width:60; stroke-opacity:1; 
stroke-linecap:round; stroke-linejoin:round;">
<path d="M49330 39440
L49490 39940
L49660 39440
" />
<path d="M49830 39940
L49830 39440
L49950 39440
L50020 39460
L50070 39510
L50090 39560
L50110 39650
L50110 39720
L50090 39820
L50070 39860
L50020 39910
L49950 39940
L49830 39940
" />
<path d="M50330 39940
L50330 39440
L50450 39440
L50520 39460
L50570 39510
L50590 39560
L50610 39650
L50610 39720
L50590 39820
L50570 39860
L50520 39910
L50450 39940
L50330 39940
" />
</g>
<g style="fill:#008400; fill-opacity:0.0; 
stroke:#008400; stroke-width:60; stroke-opacity:1; 
stroke-linecap:round; stroke-linejoin:round;">
<path d="M50000 38250
L50000 38000
" />
<path d="M48750 43500
L48750 43250
" />
</g>
<g style="fill:#848400; fill-opacity:0.0; 
stroke:#848400; stroke-width:60; stroke-opacity:1; 
stroke-linecap:round; stroke-linejoin:round;">
<path d="M54770 27170
L54880 27170
L54940 27200
L55000 27260
L55020 27370
L55020 27570
L55000 27690
L54940 27740
L54880 27770
L54770 27770
L54710 27740
L54650 27690
L54620 27570
L54620 27370
L54650 27260
L54710 27200
L54770 27170
" />
<path d="M55280 27170
L55280 27660
L55310 27710
L55340 27740
L55400 27770
L55510 27770
L55570 27740
L55600 27710
L55630 27660
L55630 27170
" />
<path d="M55830 27170
L56170 27170
" />
<path d="M56000 27770
L56000 27170
" />
<path d="M56690 27770
L56340 27770
" />
<path d="M56520 27770
L56520 27170
L56460 27260
L56400 27310
L56340 27340
" />
</g>
<g style="fill:#848400; fill-opacity:0.0; 
stroke:#848400; stroke-width:100; stroke-opacity:1; 
stroke-linecap:round; stroke-linejoin:round;">
<polyline fill="none;"
points="54350,27500
54050,27200
53750,27200
53750,27800
54050,27800
54350,27500
" /> 
</g>
<g style="fill:#848400; fill-opacity:0.0; 
stroke:#848400; stroke-width:60; stroke-opacity:1; 
stroke-linecap:round; stroke-linejoin:round;">
<path d="M52770 39920
L52880 39920
L52940 39950
L53000 40010
L53020 40120
L53020 40320
L53000 40440
L52940 40490
L52880 40520
L52770 40520
L52710 40490
L52650 40440
L52620 40320
L52620 40120
L52650 40010
L52710 39950
L52770 39920
" />
<path d="M53280 39920
L53280 40410
L53310 40460
L53340 40490
L53400 40520
L53510 40520
L53570 40490
L53600 40460
L53630 40410
L53630 39920
" />
<path d="M53830 39920
L54170 39920
" />
<path d="M54000 40520
L54000 39920
" />
<path d="M54340 39980
L54370 39950
L54430 39920
L54570 39920
L54630 39950
L54660 39980
L54690 40040
L54690 40090
L54660 40180
L54320 40520
L54690 40520
" />
</g>
<g style="fill:#848400; fill-opacity:0.0; 
stroke:#848400; stroke-width:100; stroke-opacity:1; 
stroke-linecap:round; stroke-linejoin:round;">
<polyline fill="none;"
points="52350,40250
52050,39950
51750,39950
51750,40550
52050,40550
52350,40250
" /> 
</g>
<g style="fill:#848400; fill-opacity:0.0; 
stroke:#848400; stroke-width:60; stroke-opacity:1; 
stroke-linecap:round; stroke-linejoin:round;">
</g>
<g style="fill:#008400; fill-opacity:0.0; 
stroke:#008400; stroke-width:60; stroke-opacity:1; 
stroke-linecap:round; stroke-linejoin:round;">
<path d="M43500 27250
L47500 27250
" />
</g>
<g style="fill:#008400; fill-opacity:0.0; 
stroke:#008400; stroke-width:0; stroke-opacity:1; 
stroke-linecap:round; stroke-linejoin:round;">
</g>
<g style="fill:#008400; fill-opacity:1.0; 
stroke:#008400; stroke-width:100; stroke-opacity:1; 
stroke-linecap:round; stroke-linejoin:round;">
<circle cx="47500" cy="27250" r="200" /> 
</g>
<g style="fill:#008400; fill-opacity:1.0; 
stroke:#008400; stroke-width:0; stroke-opacity:1; 
stroke-linecap:round; stroke-linejoin:round;">
</g>
<g style="fill:#008400; fill-opacity:1.0; 
stroke:#008400; stroke-width:100; stroke-opacity:1; 
stroke-linecap:round; stroke-linejoin:round;">
<circle cx="46250" cy="27250" r="200" /> 
</g>
<g style="fill:#008400; fill-opacity:1.0; 
stroke:#008400; stroke-width:60; stroke-opacity:1; 
stroke-linecap:round; stroke-linejoin:round;">
</g>
<g style="fill:#008400; fill-opacity:0.0; 
stroke:#008400; stroke-width:60; stroke-opacity:1; 
stroke-linecap:round; stroke-linejoin:round;">
<path d="M46250 38500
L43500 38500
" />
<path d="M43500 38500
L43500 27250
" />
</g>
<g style="fill:#008400; fill-opacity:0.0; 
stroke:#008400; stroke-width:0; stroke-opacity:1; 
stroke-linecap:round; stroke-linejoin:round;">
</g>
<g style="fill:#008400; fill-opacity:1.0; 
stroke:#008400; stroke-width:100; stroke-opacity:1; 
stroke-linecap:round; stroke-linejoin:round;">
<circle cx="46250" cy="38500" r="200" /> 
</g>
<g style="fill:#008400; fill-opacity:1.0; 
stroke:#008400; stroke-width:0; stroke-opacity:1; 
stroke-linecap:round; stroke-linejoin:round;">
</g>
<g style="fill:#840000; fill-opacity:1.0; 
stroke:#840000; stroke-width:0; stroke-opacity:1; 
stroke-linecap:round; stroke-linejoin:round;">
</g>
<g style="fill:#840000; fill-opacity:0.0; 
stroke:#840000; stroke-width:130; stroke-opacity:1; 
stroke-linecap:round; stroke-linejoin:round;">
<polyline fill="none;"
points="51150,25700
52350,25700
" /> 
</g>
<g style="fill:#840000; fill-opacity:0.0; 
stroke:#840000; stroke-width:120; stroke-opacity:1; 
stroke-linecap:round; stroke-linejoin:round;">
<polyline fill="none;"
points="51150,25300
52350,25300
" /> 
</g>
<g style="fill:#840000; fill-opacity:0.0; 
stroke:#840000; stroke-width:60; stroke-opacity:1; 
stroke-linecap:round; stroke-linejoin:round;">
<path d="M51750 25250
L51750 24500
" />
<path d="M51750 25700
L51750 26500
" />
</g>
<g style="fill:#008484; fill-opacity:0.0; 
stroke:#008484; stroke-width:60; stroke-opacity:1; 
stroke-linecap:round; stroke-linejoin:round;">
<path d="M52250 25010
L52230 25030
L52160 25060
L52110 25060
L52040 25030
L51990 24980
L51970 24940
L51950 24840
L51950 24770
L51970 24680
L51990 24630
L52040 24580
L52110 24560
L52160 24560
L52230 24580
L52250 24600
" />
<path d="M52540 24770
L52490 24750
L52470 24720
L52450 24680
L52450 24650
L52470 24600
L52490 24580
L52540 24560
L52640 24560
L52680 24580
L52710 24600
L52730 24650
L52730 24680
L52710 24720
L52680 24750
L52640 24770
L52540 24770
L52490 24790
L52470 24820
L52450 24870
L52450 24960
L52470 25010
L52490 25030
L52540 25060
L52640 25060
L52680 25030
L52710 25010
L52730 24960
L52730 24870
L52710 24820
L52680 24790
L52640 24770
" />
<path d="M52250 26510
L52230 26530
L52160 26560
L52110 26560
L52040 26530
L51990 26480
L51970 26440
L51950 26340
L51950 26270
L51970 26180
L51990 26130
L52040 26080
L52110 26060
L52160 26060
L52230 26080
L52250 26100
" />
</g>
<g style="fill:#008400; fill-opacity:0.0; 
stroke:#008400; stroke-width:60; stroke-opacity:1; 
stroke-linecap:round; stroke-linejoin:round;">
<path d="M51750 27500
L51750 26500
" />
</g>
<g style="fill:#008400; fill-opacity:0.0; 
stroke:#008400; stroke-width:0; stroke-opacity:1; 
stroke-linecap:round; stroke-linejoin:round;">
</g>
<g style="fill:#008400; fill-opacity:1.0; 
stroke:#008400; stroke-width:100; stroke-opacity:1; 
stroke-linecap:round; stroke-linejoin:round;">
<circle cx="51750" cy="27500" r="200" /> 
</g>
<g style="fill:#008400; fill-opacity:1.0; 
stroke:#008400; stroke-width:0; stroke-opacity:1; 
stroke-linecap:round; stroke-linejoin:round;">
</g>
<g style="fill:#840000; fill-opacity:1.0; 
stroke:#840000; stroke-width:0; stroke-opacity:1; 
stroke-linecap:round; stroke-linejoin:round;">
</g>
<g style="fill:#840000; fill-opacity:0.0; 
stroke:#840000; stroke-width:130; stroke-opacity:1; 
stroke-linecap:round; stroke-linejoin:round;">
<polyline fill="none;"
points="49900,41950
51100,41950
" /> 
</g>
<g style="fill:#840000; fill-opacity:0.0; 
stroke:#840000; stroke-width:120; stroke-opacity:1; 
stroke-linecap:round; stroke-linejoin:round;">
<polyline fill="none;"
points="49900,41550
51100,41550
" /> 
</g>
<g style="fill:#840000; fill-opacity:0.0; 
stroke:#840000; stroke-width:60; stroke-opacity:1; 
stroke-linecap:round; stroke-linejoin:round;">
<path d="M50500 41500
L50500 40750
" />
<path d="M50500 41950
L50500 42750
" />
</g>
<g style="fill:#008484; fill-opacity:0.0; 
stroke:#008484; stroke-width:60; stroke-opacity:1; 
stroke-linecap:round; stroke-linejoin:round;">
<path d="M51000 41260
L50980 41280
L50910 41310
L50860 41310
L50790 41280
L50740 41230
L50720 41190
L50700 41090
L50700 41020
L50720 40930
L50740 40880
L50790 40830
L50860 40810
L50910 40810
L50980 40830
L51000 40850
" />
<path d="M51170 40810
L51500 40810
L51290 41310
" />
<path d="M51000 42760
L50980 42780
L50910 42810
L50860 42810
L50790 42780
L50740 42730
L50720 42690
L50700 42590
L50700 42520
L50720 42430
L50740 42380
L50790 42330
L50860 42310
L50910 42310
L50980 42330
L51000 42350
" />
</g>
<g style="fill:#008400; fill-opacity:0.0; 
stroke:#008400; stroke-width:60; stroke-opacity:1; 
stroke-linecap:round; stroke-linejoin:round;">
<path d="M50500 40250
L50500 40750
" />
</g>
<g style="fill:#008400; fill-opacity:0.0; 
stroke:#008400; stroke-width:0; stroke-opacity:1; 
stroke-linecap:round; stroke-linejoin:round;">
</g>
<g style="fill:#008400; fill-opacity:1.0; 
stroke:#008400; stroke-width:100; stroke-opacity:1; 
stroke-linecap:round; stroke-linejoin:round;">
<circle cx="50500" cy="40250" r="200" /> 
</g>
<g style="fill:#008400; fill-opacity:1.0; 
stroke:#008400; stroke-width:60; stroke-opacity:1; 
stroke-linecap:round; stroke-linejoin:round;">
</g>
<g style="fill:#008400; fill-opacity:0.0; 
stroke:#008400; stroke-width:60; stroke-opacity:1; 
stroke-linecap:round; stroke-linejoin:round;">
<path d="M50500 43500
L50500 42750
" />
<path d="M48750 24000
L52750 24000
" />
<path d="M51750 24000
L51750 24500
" />
</g>
<g style="fill:#008400; fill-opacity:0.0; 
stroke:#008400; stroke-width:0; stroke-opacity:1; 
stroke-linecap:round; stroke-linejoin:round;">
</g>
<g style="fill:#008400; fill-opacity:1.0; 
stroke:#008400; stroke-width:100; stroke-opacity:1; 
stroke-linecap:round; stroke-linejoin:round;">
<circle cx="50000" cy="24000" r="200" /> 
</g>
<g style="fill:#008400; fill-opacity:1.0; 
stroke:#008400; stroke-width:0; stroke-opacity:1; 
stroke-linecap:round; stroke-linejoin:round;">
</g>
<g style="fill:#008400; fill-opacity:1.0; 
stroke:#008400; stroke-width:100; stroke-opacity:1; 
stroke-linecap:round; stroke-linejoin:round;">
<circle cx="51750" cy="24000" r="200" /> 
</g>
<g style="fill:#008400; fill-opacity:1.0; 
stroke:#008400; stroke-width:60; stroke-opacity:1; 
stroke-linecap:round; stroke-linejoin:round;">
</g>
<g style="fill:#008400; fill-opacity:0.0; 
stroke:#008400; stroke-width:60; stroke-opacity:1; 
stroke-linecap:round; stroke-linejoin:round;">
<path d="M52000 22250
L52750 22250
" />
<path d="M52750 22250
L52750 24000
" />
<path d="M46250 38000
L46250 46250
" />
<path d="M50750 46250
L50750 43500
" />
<path d="M50750 43500
L47500 43500
" />
</g>
<g style="fill:#008400; fill-opacity:0.0; 
stroke:#008400; stroke-width:0; stroke-opacity:1; 
stroke-linecap:round; stroke-linejoin:round;">
</g>
<g style="fill:#008400; fill-opacity:1.0; 
stroke:#008400; stroke-width:100; stroke-opacity:1; 
stroke-linecap:round; stroke-linejoin:round;">
<circle cx="48750" cy="43500" r="200" /> 
</g>
<g style="fill:#008400; fill-opacity:1.0; 
stroke:#008400; stroke-width:0; stroke-opacity:1; 
stroke-linecap:round; stroke-linejoin:round;">
</g>
<g style="fill:#008400; fill-opacity:1.0; 
stroke:#008400; stroke-width:100; stroke-opacity:1; 
stroke-linecap:round; stroke-linejoin:round;">
<circle cx="50500" cy="43500" r="200" /> 
</g> 
</svg>
