EESchema Schematic File Version 2
LIBS:power
LIBS:OLIMEX_Buttons
LIBS:OLIMEX_Connectors
LIBS:OLIMEX_Devices
LIBS:OLIMEX_Diodes
LIBS:OLIMEX_IC
LIBS:OLIMEX_Jumpers
LIBS:OLIMEX_OTHER
LIBS:OLIMEX_Power
LIBS:OLIMEX_RCL
LIBS:OLIMEX_Regulators
LIBS:OLIMEX_Switches
LIBS:OLIMEX_THERES
LIBS:OLIMEX_Transistors
LIBS:pinhole
LIBS:pinhole-cache
EELAYER 25 0
EELAYER END
$Descr A4 11693 8268
encoding utf-8
Sheet 9 9
Title "PinholeCamera"
Date "2017-01-01"
Rev "3"
Comp ""
Comment1 ""
Comment2 ""
Comment3 ""
Comment4 ""
$EndDescr
$Comp
L OpAmp-TSV712 U3
U 1 1 584941D3
P 4800 3300
AR Path="/584A3DEA/584941D3" Ref="U3"  Part="1" 
AR Path="/584A3DF4/584941D3" Ref="U4"  Part="1" 
AR Path="/584A3DFE/584941D3" Ref="U5"  Part="1" 
AR Path="/584A3E08/584941D3" Ref="U6"  Part="1" 
AR Path="/584ADDB0/584941D3" Ref="U7"  Part="1" 
AR Path="/584ADDBA/584941D3" Ref="U8"  Part="1" 
AR Path="/584ADDC4/584941D3" Ref="U9"  Part="1" 
AR Path="/584ADDCE/584941D3" Ref="U10"  Part="1" 
F 0 "U10" H 5050 3625 60  0000 C CNN
F 1 "OpAmp-TSV712" H 4775 3000 60  0000 C CNN
F 2 "KiCad/Housings_SOIC.pretty:SOIC-8_3.9x4.9mm_Pitch1.27mm" H 4800 3200 60  0001 C CNN
F 3 "" H 4800 3200 60  0001 C CNN
	1    4800 3300
	0    1    1    0   
$EndComp
$Comp
L Photodiode D1
U 1 1 584941DA
P 4875 4625
AR Path="/584A3DEA/584941DA" Ref="D1"  Part="1" 
AR Path="/584A3DF4/584941DA" Ref="D3"  Part="1" 
AR Path="/584A3DFE/584941DA" Ref="D5"  Part="1" 
AR Path="/584A3E08/584941DA" Ref="D7"  Part="1" 
AR Path="/584ADDB0/584941DA" Ref="D9"  Part="1" 
AR Path="/584ADDBA/584941DA" Ref="D11"  Part="1" 
AR Path="/584ADDC4/584941DA" Ref="D13"  Part="1" 
AR Path="/584ADDCE/584941DA" Ref="D15"  Part="1" 
F 0 "D15" H 4980 4730 60  0000 C CNN
F 1 "Photodiode" H 4925 4525 60  0000 C CNN
F 2 "pinhole-libs:TEMD551" H 5075 4625 60  0001 C CNN
F 3 "" H 5075 4625 60  0001 C CNN
	1    4875 4625
	-1   0    0    1   
$EndComp
$Comp
L Photodiode D2
U 1 1 584941E1
P 5000 2225
AR Path="/584A3DEA/584941E1" Ref="D2"  Part="1" 
AR Path="/584A3DF4/584941E1" Ref="D4"  Part="1" 
AR Path="/584A3DFE/584941E1" Ref="D6"  Part="1" 
AR Path="/584A3E08/584941E1" Ref="D8"  Part="1" 
AR Path="/584ADDB0/584941E1" Ref="D10"  Part="1" 
AR Path="/584ADDBA/584941E1" Ref="D12"  Part="1" 
AR Path="/584ADDC4/584941E1" Ref="D14"  Part="1" 
AR Path="/584ADDCE/584941E1" Ref="D16"  Part="1" 
F 0 "D16" H 5105 2330 60  0000 C CNN
F 1 "Photodiode" H 5050 2125 60  0000 C CNN
F 2 "pinhole-libs:TEMD551" H 5200 2225 60  0001 C CNN
F 3 "" H 5200 2225 60  0001 C CNN
	1    5000 2225
	-1   0    0    1   
$EndComp
$Comp
L R R2
U 1 1 584941E8
P 5000 2550
AR Path="/584A3DEA/584941E8" Ref="R2"  Part="1" 
AR Path="/584A3DF4/584941E8" Ref="R4"  Part="1" 
AR Path="/584A3DFE/584941E8" Ref="R6"  Part="1" 
AR Path="/584A3E08/584941E8" Ref="R8"  Part="1" 
AR Path="/584ADDB0/584941E8" Ref="R10"  Part="1" 
AR Path="/584ADDBA/584941E8" Ref="R12"  Part="1" 
AR Path="/584ADDC4/584941E8" Ref="R14"  Part="1" 
AR Path="/584ADDCE/584941E8" Ref="R16"  Part="1" 
F 0 "R16" H 5000 2630 50  0000 C CNN
F 1 "R" H 5000 2550 50  0000 C CNN
F 2 "KiCad/Resistors_SMD.pretty:R_1206_HandSoldering" H 5000 2480 30  0001 C CNN
F 3 "" V 5000 2550 30  0000 C CNN
	1    5000 2550
	0    1    1    0   
$EndComp
$Comp
L R R1
U 1 1 584941EF
P 4875 4175
AR Path="/584A3DEA/584941EF" Ref="R1"  Part="1" 
AR Path="/584A3DF4/584941EF" Ref="R3"  Part="1" 
AR Path="/584A3DFE/584941EF" Ref="R5"  Part="1" 
AR Path="/584A3E08/584941EF" Ref="R7"  Part="1" 
AR Path="/584ADDB0/584941EF" Ref="R9"  Part="1" 
AR Path="/584ADDBA/584941EF" Ref="R11"  Part="1" 
AR Path="/584ADDC4/584941EF" Ref="R13"  Part="1" 
AR Path="/584ADDCE/584941EF" Ref="R15"  Part="1" 
F 0 "R15" H 4875 4255 50  0000 C CNN
F 1 "R" H 4875 4175 50  0000 C CNN
F 2 "KiCad/Resistors_SMD.pretty:R_1206_HandSoldering" H 4875 4105 30  0001 C CNN
F 3 "" V 4875 4175 30  0000 C CNN
	1    4875 4175
	0    1    1    0   
$EndComp
Wire Wire Line
	4875 2400 4875 2775
Wire Wire Line
	5000 2700 5000 2775
Wire Wire Line
	4750 2225 4750 2775
Connection ~ 4875 2225
Wire Wire Line
	5000 2750 5375 2750
Connection ~ 5000 2750
Wire Wire Line
	4875 4025 4875 3800
Wire Wire Line
	4750 3800 4750 4350
Wire Wire Line
	4875 4025 5175 4025
Connection ~ 4875 4025
$Comp
L GND #PWR08
U 1 1 58494203
P 4625 2700
AR Path="/584A3DEA/58494203" Ref="#PWR08"  Part="1" 
AR Path="/584A3DF4/58494203" Ref="#PWR010"  Part="1" 
AR Path="/584A3DFE/58494203" Ref="#PWR012"  Part="1" 
AR Path="/584A3E08/58494203" Ref="#PWR014"  Part="1" 
AR Path="/584ADDB0/58494203" Ref="#PWR016"  Part="1" 
AR Path="/584ADDBA/58494203" Ref="#PWR018"  Part="1" 
AR Path="/584ADDC4/58494203" Ref="#PWR020"  Part="1" 
AR Path="/584ADDCE/58494203" Ref="#PWR022"  Part="1" 
F 0 "#PWR022" H 4625 2450 50  0001 C CNN
F 1 "GND" H 4625 2550 50  0000 C CNN
F 2 "" H 4625 2700 50  0000 C CNN
F 3 "" H 4625 2700 50  0000 C CNN
	1    4625 2700
	-1   0    0    1   
$EndComp
Wire Wire Line
	4625 2700 4625 2775
$Comp
L VDD #PWR09
U 1 1 5849420A
P 5000 3825
AR Path="/584A3DEA/5849420A" Ref="#PWR09"  Part="1" 
AR Path="/584A3DF4/5849420A" Ref="#PWR011"  Part="1" 
AR Path="/584A3DFE/5849420A" Ref="#PWR013"  Part="1" 
AR Path="/584A3E08/5849420A" Ref="#PWR015"  Part="1" 
AR Path="/584ADDB0/5849420A" Ref="#PWR017"  Part="1" 
AR Path="/584ADDBA/5849420A" Ref="#PWR019"  Part="1" 
AR Path="/584ADDC4/5849420A" Ref="#PWR021"  Part="1" 
AR Path="/584ADDCE/5849420A" Ref="#PWR023"  Part="1" 
F 0 "#PWR023" H 5000 3675 50  0001 C CNN
F 1 "VDD" H 5000 3975 50  0000 C CNN
F 2 "" H 5000 3825 50  0000 C CNN
F 3 "" H 5000 3825 50  0000 C CNN
	1    5000 3825
	-1   0    0    1   
$EndComp
Wire Wire Line
	5000 3825 5000 3800
Wire Wire Line
	4875 4350 4875 4325
Text HLabel 5375 2750 2    60   Output ~ 0
OUT1
Text HLabel 5175 4025 2    60   Output ~ 0
OUT2
Wire Wire Line
	4350 2725 4750 2725
Connection ~ 4750 2725
Connection ~ 4625 2725
Wire Wire Line
	4625 3850 4350 3850
Wire Wire Line
	4350 3850 4350 2725
Connection ~ 4625 3850
$Comp
L C C2
U 1 1 584C667D
P 5175 2550
AR Path="/584A3DEA/584C667D" Ref="C2"  Part="1" 
AR Path="/584A3DF4/584C667D" Ref="C4"  Part="1" 
AR Path="/584A3DFE/584C667D" Ref="C6"  Part="1" 
AR Path="/584A3E08/584C667D" Ref="C8"  Part="1" 
AR Path="/584ADDB0/584C667D" Ref="C10"  Part="1" 
AR Path="/584ADDBA/584C667D" Ref="C12"  Part="1" 
AR Path="/584ADDC4/584C667D" Ref="C14"  Part="1" 
AR Path="/584ADDCE/584C667D" Ref="C16"  Part="1" 
F 0 "C16" H 5185 2620 50  0000 L CNN
F 1 "C" H 5185 2470 50  0000 L CNN
F 2 "KiCad/Capacitors_SMD.pretty:C_0805_HandSoldering" H 5175 2550 60  0001 C CNN
F 3 "" H 5175 2550 60  0000 C CNN
	1    5175 2550
	1    0    0    -1  
$EndComp
Wire Wire Line
	5175 2750 5175 2650
Connection ~ 5175 2750
$Comp
L C C1
U 1 1 584C69A8
P 5050 4175
AR Path="/584A3DEA/584C69A8" Ref="C1"  Part="1" 
AR Path="/584A3DF4/584C69A8" Ref="C3"  Part="1" 
AR Path="/584A3DFE/584C69A8" Ref="C5"  Part="1" 
AR Path="/584A3E08/584C69A8" Ref="C7"  Part="1" 
AR Path="/584ADDB0/584C69A8" Ref="C9"  Part="1" 
AR Path="/584ADDBA/584C69A8" Ref="C11"  Part="1" 
AR Path="/584ADDC4/584C69A8" Ref="C13"  Part="1" 
AR Path="/584ADDCE/584C69A8" Ref="C15"  Part="1" 
F 0 "C15" H 5060 4245 50  0000 L CNN
F 1 "C" H 5060 4095 50  0000 L CNN
F 2 "KiCad/Capacitors_SMD.pretty:C_0805_HandSoldering" H 5050 4175 60  0001 C CNN
F 3 "" H 5050 4175 60  0000 C CNN
	1    5050 4175
	1    0    0    -1  
$EndComp
Wire Wire Line
	5050 4025 5050 4075
Connection ~ 5050 4025
Wire Wire Line
	5050 4350 5050 4275
Wire Wire Line
	4875 2400 5275 2400
Wire Wire Line
	5175 2400 5175 2450
Connection ~ 5000 2400
Connection ~ 5175 2400
Wire Wire Line
	5200 2225 5275 2225
Wire Wire Line
	5275 2225 5275 2400
Wire Wire Line
	4625 3800 4625 4625
Wire Wire Line
	5075 4625 5075 4350
Wire Wire Line
	5075 4350 4750 4350
Connection ~ 4875 4350
Connection ~ 5050 4350
$EndSCHEMATC
