EESchema Schematic File Version 2
LIBS:power
LIBS:OLIMEX_Buttons
LIBS:OLIMEX_Connectors
LIBS:OLIMEX_Devices
LIBS:OLIMEX_Diodes
LIBS:OLIMEX_IC
LIBS:OLIMEX_Jumpers
LIBS:OLIMEX_OTHER
LIBS:OLIMEX_Power
LIBS:OLIMEX_RCL
LIBS:OLIMEX_Regulators
LIBS:OLIMEX_Switches
LIBS:OLIMEX_THERES
LIBS:OLIMEX_Transistors
LIBS:pinhole
LIBS:pinhole-cache
EELAYER 25 0
EELAYER END
$Descr A4 11693 8268
encoding utf-8
Sheet 7 11
Title ""
Date ""
Rev ""
Comp ""
Comment1 ""
Comment2 ""
Comment3 ""
Comment4 ""
$EndDescr
$Comp
L AMUX-SN74LV4051A U1
U 1 1 58499088
P 7750 3500
AR Path="/584985D6/58499088" Ref="U1"  Part="1" 
AR Path="/5849EEBE/58499088" Ref="U6"  Part="1" 
F 0 "U6" H 8125 4050 60  0000 C CNN
F 1 "AMUX-SN74LV4051A" H 7725 2950 60  0000 C CNN
F 2 "pinhole-libs:SN74LV4051A" H 7725 3400 60  0001 C CNN
F 3 "" H 7725 3400 60  0001 C CNN
	1    7750 3500
	0    1    1    0   
$EndComp
$Sheet
S 725  3225 1100 450 
U 584990AA
F0 "diodes_opamps01" 60
F1 "diodes_opamps.sch" 60
F2 "OUT1" O R 1825 3325 60 
F3 "OUT2" O R 1825 3500 60 
$EndSheet
$Sheet
S 2025 3225 1100 450 
U 584990B4
F0 "diodes_opamps02" 60
F1 "diodes_opamps.sch" 60
F2 "OUT1" O R 3125 3325 60 
F3 "OUT2" O R 3125 3500 60 
$EndSheet
$Sheet
S 3250 3225 1100 450 
U 584990BE
F0 "diodes_opamps03" 60
F1 "diodes_opamps.sch" 60
F2 "OUT1" O R 4350 3325 60 
F3 "OUT2" O R 4350 3500 60 
$EndSheet
$Sheet
S 4475 3250 1100 450 
U 584990C8
F0 "diodes_opamps04" 60
F1 "diodes_opamps.sch" 60
F2 "OUT1" O R 5575 3350 60 
F3 "OUT2" O R 5575 3525 60 
$EndSheet
Text HLabel 7950 2800 1    60   Output ~ 0
OUTPUT
Text HLabel 7575 4250 3    60   Input ~ 0
A
Text HLabel 7450 4250 3    60   Input ~ 0
B
Text HLabel 7325 4250 3    60   Input ~ 0
C
Wire Wire Line
	7950 2800 7950 2875
Wire Wire Line
	7575 4125 7575 4250
Wire Wire Line
	7450 4125 7450 4250
Wire Wire Line
	7325 4125 7325 4250
Wire Wire Line
	5575 3525 5800 3525
Wire Wire Line
	5800 3525 5800 4600
Wire Wire Line
	5800 4600 7700 4600
Wire Wire Line
	5575 3350 5800 3350
Wire Wire Line
	5800 3350 5800 2450
Wire Wire Line
	5800 2450 7700 2450
$Comp
L GND #PWR05
U 1 1 584BD0B0
P 7325 2775
AR Path="/584985D6/584BD0B0" Ref="#PWR05"  Part="1" 
AR Path="/5849EEBE/584BD0B0" Ref="#PWR015"  Part="1" 
F 0 "#PWR015" H 7325 2525 50  0001 C CNN
F 1 "GND" H 7325 2625 50  0000 C CNN
F 2 "" H 7325 2775 50  0000 C CNN
F 3 "" H 7325 2775 50  0000 C CNN
	1    7325 2775
	-1   0    0    1   
$EndComp
Wire Wire Line
	7325 2775 7325 2875
Wire Wire Line
	7450 2875 7450 2825
Wire Wire Line
	7325 2825 7575 2825
Connection ~ 7325 2825
$Comp
L VDD #PWR06
U 1 1 584BD5AD
P 8300 4125
AR Path="/584985D6/584BD5AD" Ref="#PWR06"  Part="1" 
AR Path="/5849EEBE/584BD5AD" Ref="#PWR016"  Part="1" 
F 0 "#PWR016" H 8300 3975 50  0001 C CNN
F 1 "VDD" H 8300 4275 50  0000 C CNN
F 2 "" H 8300 4125 50  0000 C CNN
F 3 "" H 8300 4125 50  0000 C CNN
	1    8300 4125
	0    1    1    0   
$EndComp
Wire Wire Line
	8300 4125 8200 4125
Wire Wire Line
	4400 2400 7825 2400
Wire Wire Line
	4400 2400 4400 3325
Wire Wire Line
	4400 3325 4350 3325
Wire Wire Line
	4350 3500 4400 3500
Wire Wire Line
	4400 3500 4400 4700
Wire Wire Line
	4400 4700 7825 4700
Wire Wire Line
	3125 3500 3200 3500
Wire Wire Line
	3200 3500 3200 4800
Wire Wire Line
	3200 4800 7950 4800
Wire Wire Line
	3125 3325 3200 3325
Wire Wire Line
	3200 3325 3200 2325
Wire Wire Line
	3200 2325 8075 2325
Wire Wire Line
	1900 2250 8200 2250
Wire Wire Line
	1900 2250 1900 3325
Wire Wire Line
	1900 3325 1825 3325
Wire Wire Line
	1825 3500 1900 3500
Wire Wire Line
	1900 3500 1900 4950
Wire Wire Line
	1900 4950 8075 4950
Wire Wire Line
	7700 4600 7700 4125
Wire Wire Line
	7825 4700 7825 4125
Wire Wire Line
	7950 4800 7950 4125
Wire Wire Line
	8075 4950 8075 4125
Wire Wire Line
	7700 2450 7700 2875
Wire Wire Line
	7825 2400 7825 2875
Wire Wire Line
	8200 2250 8200 2875
Wire Wire Line
	8075 2325 8075 2875
Wire Wire Line
	7575 2825 7575 2875
Connection ~ 7450 2825
$EndSCHEMATC
