EESchema Schematic File Version 2
LIBS:power
LIBS:OLIMEX_Buttons
LIBS:OLIMEX_Connectors
LIBS:OLIMEX_Devices
LIBS:OLIMEX_Diodes
LIBS:OLIMEX_IC
LIBS:OLIMEX_Jumpers
LIBS:OLIMEX_OTHER
LIBS:OLIMEX_Power
LIBS:OLIMEX_RCL
LIBS:OLIMEX_Regulators
LIBS:OLIMEX_Switches
LIBS:OLIMEX_THERES
LIBS:OLIMEX_Transistors
LIBS:pinhole
LIBS:pinhole-cache
EELAYER 25 0
EELAYER END
$Descr A4 11693 8268
encoding utf-8
Sheet 1 9
Title "PinholeCamera"
Date "2017-01-01"
Rev "3"
Comp ""
Comment1 ""
Comment2 ""
Comment3 ""
Comment4 ""
$EndDescr
$Comp
L GND #PWR01
U 1 1 5849FA29
P 10475 3300
F 0 "#PWR01" H 10475 3050 50  0001 C CNN
F 1 "GND" H 10475 3150 50  0000 C CNN
F 2 "" H 10475 3300 50  0000 C CNN
F 3 "" H 10475 3300 50  0000 C CNN
	1    10475 3300
	0    1    1    0   
$EndComp
$Comp
L VDD #PWR02
U 1 1 5849FB08
P 10450 2700
F 0 "#PWR02" H 10450 2550 50  0001 C CNN
F 1 "VDD" H 10450 2850 50  0000 C CNN
F 2 "" H 10450 2700 50  0000 C CNN
F 3 "" H 10450 2700 50  0000 C CNN
	1    10450 2700
	0    -1   -1   0   
$EndComp
$Comp
L AMUX-SN74LV4051A U1
U 1 1 584A3DE5
P 7650 5025
F 0 "U1" H 8025 5575 60  0000 C CNN
F 1 "AMUX-SN74LV4051A" H 7625 4475 60  0000 C CNN
F 2 "pinhole-libs:SN74LV4051A" H 7625 4925 60  0001 C CNN
F 3 "" H 7625 4925 60  0001 C CNN
	1    7650 5025
	0    1    1    0   
$EndComp
$Sheet
S 625  4750 1100 450 
U 584A3DEA
F0 "sheet584A3DDC" 60
F1 "diodes_opamps.sch" 60
F2 "OUT1" O R 1725 4850 60 
F3 "OUT2" O R 1725 5025 60 
$EndSheet
$Sheet
S 1925 4750 1100 450 
U 584A3DF4
F0 "sheet584A3DDD" 60
F1 "diodes_opamps.sch" 60
F2 "OUT1" O R 3025 4850 60 
F3 "OUT2" O R 3025 5025 60 
$EndSheet
$Sheet
S 3150 4750 1100 450 
U 584A3DFE
F0 "sheet584A3DDE" 60
F1 "diodes_opamps.sch" 60
F2 "OUT1" O R 4250 4850 60 
F3 "OUT2" O R 4250 5025 60 
$EndSheet
$Sheet
S 4375 4775 1100 450 
U 584A3E08
F0 "sheet584A3DDF" 60
F1 "diodes_opamps.sch" 60
F2 "OUT1" O R 5475 4875 60 
F3 "OUT2" O R 5475 5050 60 
$EndSheet
$Comp
L GND #PWR03
U 1 1 584A3E22
P 7225 4300
F 0 "#PWR03" H 7225 4050 50  0001 C CNN
F 1 "GND" H 7225 4150 50  0000 C CNN
F 2 "" H 7225 4300 50  0000 C CNN
F 3 "" H 7225 4300 50  0000 C CNN
	1    7225 4300
	-1   0    0    1   
$EndComp
$Comp
L VDD #PWR04
U 1 1 584A3E2C
P 8200 5650
F 0 "#PWR04" H 8200 5500 50  0001 C CNN
F 1 "VDD" H 8200 5800 50  0000 C CNN
F 2 "" H 8200 5650 50  0000 C CNN
F 3 "" H 8200 5650 50  0000 C CNN
	1    8200 5650
	0    1    1    0   
$EndComp
$Comp
L AMUX-SN74LV4051A U2
U 1 1 584ADDAB
P 7675 1825
F 0 "U2" H 8050 2375 60  0000 C CNN
F 1 "AMUX-SN74LV4051A" H 7650 1275 60  0000 C CNN
F 2 "pinhole-libs:SN74LV4051A" H 7650 1725 60  0001 C CNN
F 3 "" H 7650 1725 60  0001 C CNN
	1    7675 1825
	0    1    1    0   
$EndComp
$Sheet
S 650  1550 1100 450 
U 584ADDB0
F0 "sheet584ADDA2" 60
F1 "diodes_opamps.sch" 60
F2 "OUT1" O R 1750 1650 60 
F3 "OUT2" O R 1750 1825 60 
$EndSheet
$Sheet
S 1950 1550 1100 450 
U 584ADDBA
F0 "sheet584ADDA3" 60
F1 "diodes_opamps.sch" 60
F2 "OUT1" O R 3050 1650 60 
F3 "OUT2" O R 3050 1825 60 
$EndSheet
$Sheet
S 3175 1550 1100 450 
U 584ADDC4
F0 "sheet584ADDA4" 60
F1 "diodes_opamps.sch" 60
F2 "OUT1" O R 4275 1650 60 
F3 "OUT2" O R 4275 1825 60 
$EndSheet
$Sheet
S 4400 1575 1100 450 
U 584ADDCE
F0 "sheet584ADDA5" 60
F1 "diodes_opamps.sch" 60
F2 "OUT1" O R 5500 1675 60 
F3 "OUT2" O R 5500 1850 60 
$EndSheet
$Comp
L GND #PWR05
U 1 1 584ADDE8
P 7250 1100
F 0 "#PWR05" H 7250 850 50  0001 C CNN
F 1 "GND" H 7250 950 50  0000 C CNN
F 2 "" H 7250 1100 50  0000 C CNN
F 3 "" H 7250 1100 50  0000 C CNN
	1    7250 1100
	-1   0    0    1   
$EndComp
$Comp
L VDD #PWR06
U 1 1 584ADDF2
P 8225 2450
F 0 "#PWR06" H 8225 2300 50  0001 C CNN
F 1 "VDD" H 8225 2600 50  0000 C CNN
F 2 "" H 8225 2450 50  0000 C CNN
F 3 "" H 8225 2450 50  0000 C CNN
	1    8225 2450
	0    1    1    0   
$EndComp
Wire Wire Line
	9525 3100 10625 3100
Wire Wire Line
	9600 3000 10625 3000
Wire Wire Line
	9675 2900 10625 2900
Wire Wire Line
	10475 3300 10625 3300
Wire Wire Line
	7850 4150 7850 4400
Wire Wire Line
	7475 5650 7475 5875
Wire Wire Line
	7350 5650 7350 5950
Wire Wire Line
	7225 5650 7225 6025
Wire Wire Line
	5700 4875 5700 6125
Wire Wire Line
	5700 6125 7600 6125
Wire Wire Line
	5600 3975 5600 5050
Wire Wire Line
	5600 3975 7600 3975
Wire Wire Line
	7225 4300 7225 4400
Wire Wire Line
	7350 4400 7350 4350
Wire Wire Line
	7225 4350 7475 4350
Connection ~ 7225 4350
Wire Wire Line
	8200 5650 8100 5650
Wire Wire Line
	4300 3925 7725 3925
Wire Wire Line
	4300 3925 4300 5025
Wire Wire Line
	4350 4850 4350 6225
Wire Wire Line
	4350 6225 7725 6225
Wire Wire Line
	3125 4850 3125 6325
Wire Wire Line
	3125 6325 7850 6325
Wire Wire Line
	3075 3850 3075 5025
Wire Wire Line
	3075 3850 7975 3850
Wire Wire Line
	1800 3775 8100 3775
Wire Wire Line
	1800 3775 1800 5025
Wire Wire Line
	1850 4850 1850 6475
Wire Wire Line
	1850 6475 7975 6475
Wire Wire Line
	7600 6125 7600 5650
Wire Wire Line
	7725 6225 7725 5650
Wire Wire Line
	7850 6325 7850 5650
Wire Wire Line
	7975 6475 7975 5650
Wire Wire Line
	7475 4350 7475 4400
Connection ~ 7350 4350
Wire Wire Line
	7875 1100 7875 1200
Wire Wire Line
	7500 2450 7500 2775
Wire Wire Line
	7375 2450 7375 2700
Wire Wire Line
	7250 2450 7250 2625
Wire Wire Line
	5725 1850 5725 2925
Wire Wire Line
	5725 2925 7875 2925
Wire Wire Line
	5725 1675 5725 775 
Wire Wire Line
	5725 775  8125 775 
Wire Wire Line
	7250 1100 7250 1200
Wire Wire Line
	7375 1200 7375 1150
Wire Wire Line
	7250 1150 7500 1150
Connection ~ 7250 1150
Wire Wire Line
	8225 2450 8125 2450
Wire Wire Line
	4325 725  8000 725 
Wire Wire Line
	4325 725  4325 1650
Wire Wire Line
	4325 1650 4275 1650
Wire Wire Line
	4275 1825 4325 1825
Wire Wire Line
	4325 1825 4325 3025
Wire Wire Line
	4325 3025 8000 3025
Wire Wire Line
	3050 1825 3125 1825
Wire Wire Line
	3125 1825 3125 3125
Wire Wire Line
	3125 3125 7625 3125
Wire Wire Line
	3050 1650 3125 1650
Wire Wire Line
	3125 1650 3125 650 
Wire Wire Line
	3125 650  7750 650 
Wire Wire Line
	1825 575  7625 575 
Wire Wire Line
	1825 575  1825 1650
Wire Wire Line
	1825 1650 1750 1650
Wire Wire Line
	1750 1825 1825 1825
Wire Wire Line
	1825 1825 1825 3275
Wire Wire Line
	1825 3275 7750 3275
Wire Wire Line
	7500 1150 7500 1200
Connection ~ 7375 1150
Wire Wire Line
	7250 2625 9675 2625
Wire Wire Line
	7375 2700 9600 2700
Wire Wire Line
	7500 2775 9525 2775
Wire Wire Line
	9525 5875 7475 5875
Wire Wire Line
	7350 5950 9600 5950
Wire Wire Line
	7225 6025 9675 6025
Wire Wire Line
	7850 4150 9400 4150
Wire Wire Line
	7875 1100 9950 1100
Wire Wire Line
	9950 1100 9950 2800
Wire Wire Line
	8100 3775 8100 4400
Wire Wire Line
	7975 3850 7975 4400
Wire Wire Line
	7725 3925 7725 4400
Wire Wire Line
	7600 3975 7600 4400
Wire Wire Line
	7625 575  7625 1200
Wire Wire Line
	7750 650  7750 1200
Wire Wire Line
	8000 725  8000 1200
Wire Wire Line
	8125 775  8125 1200
Wire Wire Line
	10450 2700 10625 2700
Wire Wire Line
	5500 1675 5725 1675
Wire Wire Line
	5500 1850 5725 1850
Wire Wire Line
	1800 5025 1725 5025
Wire Wire Line
	1850 4850 1725 4850
Wire Wire Line
	3075 5025 3025 5025
Wire Wire Line
	3125 4850 3025 4850
Wire Wire Line
	4300 5025 4250 5025
Wire Wire Line
	4350 4850 4250 4850
Wire Wire Line
	5600 5050 5475 5050
Wire Wire Line
	5700 4875 5475 4875
Wire Wire Line
	7625 3125 7625 2450
Wire Wire Line
	7750 3275 7750 2450
Wire Wire Line
	7875 2925 7875 2450
Wire Wire Line
	8000 3025 8000 2450
Wire Wire Line
	9400 4150 9400 3400
Wire Wire Line
	9400 3400 10625 3400
$Comp
L CON8 CON1
U 1 1 5851B048
P 10725 3100
F 0 "CON1" H 10675 3500 60  0000 C CNN
F 1 "CON8" H 10675 2600 60  0000 C CNN
F 2 "OLIMEX/KiCAD/KiCAD_Foots/OLIMEX_Connectors-FP.pretty:HN1x8" H 10650 3350 60  0001 C CNN
F 3 "" H 10650 3350 60  0000 C CNN
	1    10725 3100
	-1   0    0    1   
$EndComp
$Comp
L GND #PWR07
U 1 1 585266EF
P 10475 3200
F 0 "#PWR07" H 10475 2950 50  0001 C CNN
F 1 "GND" H 10475 3050 50  0000 C CNN
F 2 "" H 10475 3200 50  0000 C CNN
F 3 "" H 10475 3200 50  0000 C CNN
	1    10475 3200
	0    1    1    0   
$EndComp
Wire Wire Line
	10475 3200 10625 3200
Wire Wire Line
	9950 2800 10625 2800
Connection ~ 9600 3000
Connection ~ 9675 2900
Connection ~ 9525 3100
Wire Wire Line
	9675 6025 9675 2625
Wire Wire Line
	9600 5950 9600 2700
Wire Wire Line
	9525 2775 9525 5875
$EndSCHEMATC
